%YAML 1.1
%TAG !u! tag:unity3d.com,2011:
--- !u!114 &11400000
MonoBehaviour:
  m_ObjectHideFlags: 0
  m_CorrespondingSourceObject: {fileID: 0}
  m_PrefabInstance: {fileID: 0}
  m_PrefabAsset: {fileID: 0}
  m_GameObject: {fileID: 0}
  m_Enabled: 1
  m_EditorHideFlags: 0
  m_Script: {fileID: 11500000, guid: 8ebc57803e127864eb8701b2cdf0e84a, type: 3}
  m_Name: Inventory
  m_EditorClassIdentifier: 
  inventory:
    inventoryItems:
    - {fileID: 11400000, guid: 2a4a38ce9051f0640b416ed7232c843a, type: 2}
    - {fileID: 11400000, guid: 3ab3faa7265bfdf4e87459a97dcdeead, type: 2}
