%YAML 1.1
%TAG !u! tag:unity3d.com,2011:
--- !u!21 &2100000
Material:
  serializedVersion: 6
  m_ObjectHideFlags: 0
  m_CorrespondingSourceObject: {fileID: 0}
  m_PrefabInstance: {fileID: 0}
  m_PrefabAsset: {fileID: 0}
  m_Name: Sheen
  m_Shader: {fileID: -6465566751694194690, guid: 0c58b2135de30e94cb6a657207274641,
    type: 3}
  m_ShaderKeywords: _SheenEnabled
  m_LightmapFlags: 4
  m_EnableInstancingVariants: 1
  m_DoubleSidedGI: 0
  m_CustomRenderQueue: -1
  stringTagMap: {}
  disabledShaderPasses: []
  m_SavedProperties:
    serializedVersion: 3
    m_TexEnvs:
    - _MainTex:
        m_Texture: {fileID: 0}
        m_Scale: {x: 1, y: 1}
        m_Offset: {x: 0, y: 0}
    m_Floats:
    - Boolean_18A2C720: 0
    - Vector1_9FF269C2: 0.382
    - _SheenEnabled: 0
    m_Colors:
    - _Color: {r: 0.754717, g: 0.36667857, b: 0.36667857, a: 0}
