{
    "name": "TerrainPaintActions",
    "maps": [
        {
            "name": "Paint",
            "id": "9ea8070f-ff60-4c5f-87df-597774a386f2",
            "actions": [
                {
                    "name": "Paint",
                    "type": "Button",
                    "id": "d5f5d7d2-b9a9-4048-9b64-8b99b77176cd",
                    "expectedControlType": "",
                    "processors": "",
                    "interactions": ""
                },
                {
                    "name": "MousePosition",
                    "type": "PassThrough",
                    "id": "54c6b652-ad6f-41e3-881c-e2c3a49b9325",
                    "expectedControlType": "",
                    "processors": "",
                    "interactions": ""
                },
                {
                    "name": "Cancel",
                    "type": "Button",
                    "id": "33a06fb0-baa7-4a86-a347-b8b9194d9008",
                    "expectedControlType": "",
                    "processors": "",
                    "interactions": ""
                }
            ],
            "bindings": [
                {
                    "name": "",
                    "id": "7f249d5b-1418-4a12-8b2c-21e433a23f54",
                    "path": "<Mouse>/leftButton",
                    "interactions": "",
                    "processors": "",
                    "groups": "",
                    "action": "Paint",
                    "isComposite": false,
                    "isPartOfComposite": false
                },
                {
                    "name": "",
                    "id": "57cc645b-0351-4471-a1ce-093896ec4821",
                    "path": "<Mouse>/position",
                    "interactions": "",
                    "processors": "",
                    "groups": "",
                    "action": "MousePosition",
                    "isComposite": false,
                    "isPartOfComposite": false
                },
                {
                    "name": "",
                    "id": "0f2983d8-8c0f-4475-bc84-d8bf718db7d2",
                    "path": "<Mouse>/rightButton",
                    "interactions": "",
                    "processors": "",
                    "groups": "",
                    "action": "Cancel",
                    "isComposite": false,
                    "isPartOfComposite": false
                }
            ]
        }
    ],
    "controlSchemes": []
}