%YAML 1.1
%TAG !u! tag:unity3d.com,2011:
--- !u!114 &11400000
MonoBehaviour:
  m_ObjectHideFlags: 0
  m_CorrespondingSourceObject: {fileID: 0}
  m_PrefabInstance: {fileID: 0}
  m_PrefabAsset: {fileID: 0}
  m_GameObject: {fileID: 0}
  m_Enabled: 1
  m_EditorHideFlags: 0
  m_Script: {fileID: 11500000, guid: 2cfe244ceeb8fe548b2ee712d9f8f759, type: 3}
  m_Name: Sand
  m_EditorClassIdentifier: 
  blockType: 0
  blockPrefab: {fileID: 230095048867003585, guid: 2167dc121e7f6d0498bf7284f444ff31,
    type: 3}
  blockColour: {r: 1, g: 0.8964392, b: 0.6556604, a: 1}
